
 *****  LHCb 27.04.2012                                                                   *****

           DATE:  2/21/24,  TIME: 15:21:36

          Total number of particles followed            400, for a total weight of  4.0000E+02

1

   Track n.  33  "spNSn34   " , generalized particle n.    8, region n.  1413
      detector volume:  1.0000E+00 cm**3
      logar. energy binning from  1.0000E-14 to  3.0000E+02 GeV,   500 bins (ratio : 1.0788E+00)
      Data follow in a vector A(ie), format (1(5x,1p,10(1x,e11.4)))

       0.0000E+00  0.0000E+00  0.0000E+00  0.0000E+00  0.0000E+00  0.0000E+00  0.0000E+00  0.0000E+00  0.0000E+00  0.0000E+00
       0.0000E+00  0.0000E+00  0.0000E+00  0.0000E+00  0.0000E+00  0.0000E+00  0.0000E+00  0.0000E+00  0.0000E+00  0.0000E+00
       0.0000E+00  0.0000E+00  0.0000E+00  0.0000E+00  0.0000E+00  0.0000E+00  0.0000E+00  0.0000E+00  0.0000E+00  0.0000E+00
       0.0000E+00  0.0000E+00  0.0000E+00  0.0000E+00  0.0000E+00  0.0000E+00  0.0000E+00  0.0000E+00  0.0000E+00  0.0000E+00
       0.0000E+00  0.0000E+00  7.9656E+09  0.0000E+00  0.0000E+00  0.0000E+00  0.0000E+00  0.0000E+00  0.0000E+00  0.0000E+00
       7.3000E+09  5.6059E+09  1.4719E+09  0.0000E+00  0.0000E+00  0.0000E+00  2.4072E+10  0.0000E+00  0.0000E+00  1.2966E+10
       0.0000E+00  1.6950E+10  9.3575E+09  4.0950E+09  1.3520E+10  1.2098E+10  8.5722E+09  1.0867E+10  1.3670E+10  1.1058E+10
       7.1035E+09  1.0207E+10  8.8618E+09  9.2603E+09  1.2380E+10  5.0222E+09  1.1471E+10  1.0701E+10  9.5092E+09  1.0790E+10
       9.8334E+09  1.3558E+10  9.1726E+09  1.2507E+10  1.2771E+10  1.0480E+10  1.1538E+10  1.0849E+10  1.1704E+10  1.0550E+10
       1.0047E+10  1.0390E+10  8.9527E+09  8.1756E+09  6.5319E+09  8.0717E+09  7.9284E+09  9.2886E+09  8.5292E+09  8.7470E+09
       6.6124E+09  1.2603E+10  8.3822E+09  6.5312E+09  7.4159E+09  8.2609E+09  6.7663E+09  8.0324E+09  8.0155E+09  7.1334E+09
       6.4652E+09  5.5226E+09  5.2086E+09  5.3237E+09  3.9577E+09  4.5649E+09  2.8566E+09  4.6544E+09  4.1908E+09  3.4949E+09
       3.7019E+09  1.6483E+09  2.0500E+09  2.0222E+09  1.6606E+09  1.7707E+09  1.5829E+09  1.2631E+09  7.8629E+08  6.9567E+08
       6.5641E+08  9.1538E+08  5.4817E+08  5.9823E+08  4.8193E+08  6.1523E+08  4.6920E+08  3.4390E+08  3.6576E+08  2.9720E+08
       3.3606E+08  2.4699E+08  1.8645E+08  2.0628E+08  1.8993E+08  1.4075E+08  1.4715E+08  2.0548E+08  1.6259E+08  1.5477E+08
       1.4132E+08  1.2879E+08  9.0295E+07  7.4346E+07  7.7300E+07  7.3277E+07  1.2600E+08  7.7977E+07  7.9852E+07  5.1970E+07
       7.2997E+07  5.9849E+07  7.2686E+07  4.2796E+07  5.5307E+07  3.8500E+07  4.3287E+07  4.4929E+07  3.8892E+07  3.5015E+07
       3.5436E+07  2.7720E+07  2.1828E+07  2.8546E+07  2.1653E+07  2.4084E+07  1.5910E+07  2.4836E+07  2.1445E+07  2.1422E+07
       1.4720E+07  1.1857E+07  1.3390E+07  1.4151E+07  1.1704E+07  7.7431E+06  1.0411E+07  7.4644E+06  7.2601E+06  9.0777E+06
       6.9617E+06  4.9115E+06  6.6692E+06  7.6813E+06  7.0010E+06  4.8021E+06  4.9763E+06  3.8760E+06  4.1970E+06  3.3548E+06
       2.4906E+06  3.5163E+06  3.2779E+06  1.9319E+06  1.2987E+06  1.9717E+06  1.9069E+06  2.0631E+06  1.6897E+06  1.8120E+06
       1.7493E+06  1.6964E+06  1.2981E+06  1.6397E+06  1.4558E+06  9.0196E+05  5.9988E+05  8.2354E+05  8.0726E+05  6.4910E+05
       6.5446E+05  4.9647E+05  7.1031E+05  6.7317E+05  5.7144E+05  3.9623E+05  4.5471E+05  3.9296E+05  3.7676E+05  4.0739E+05
       3.6706E+05  3.9023E+05  3.9827E+05  2.6040E+05  2.6901E+05  2.0941E+05  2.3712E+05  2.1980E+05  1.0044E+05  1.7495E+05
       1.6883E+05  1.5198E+05  1.3106E+05  1.6477E+05  1.2245E+05  7.7144E+04  9.1233E+04  1.0879E+05  9.6978E+04  1.0592E+05
       8.9541E+04  8.3611E+04  8.0731E+04  5.5144E+04  5.4598E+04  5.9079E+04  2.7005E+04  5.7032E+04  3.6747E+04  5.8922E+04
       3.3839E+04  3.6877E+04  4.8478E+04  2.2414E+04  3.3620E+04  3.7706E+04  2.1921E+04  2.2332E+04  2.3816E+04  1.7894E+04
       1.4613E+04  2.0194E+04  1.7341E+04  1.5093E+04  1.2635E+04  1.1646E+04  1.4902E+04  1.2882E+04  1.0381E+04  9.0732E+03
       8.9794E+03  1.0390E+04  7.2808E+03  7.3389E+03  7.8620E+03  7.1791E+03  5.7211E+03  6.4821E+03  5.0722E+03  4.2723E+03
       4.5618E+03  4.8926E+03  4.0510E+03  2.8476E+03  4.5266E+03  2.7502E+03  3.7988E+03  4.0850E+03  2.2688E+03  2.6351E+03
       2.6989E+03  1.6814E+03  1.8012E+03  1.4146E+03  2.0345E+03  1.9127E+03  2.1845E+03  2.1967E+03  1.2121E+03  1.1648E+03
       1.3488E+03  1.3912E+03  1.0103E+03  1.3134E+03  1.0070E+03  9.5592E+02  8.6552E+02  6.1924E+02  1.1471E+03  6.1102E+02
       5.5303E+02  4.1046E+02  5.6735E+02  3.7424E+02  5.5298E+02  4.0993E+02  3.7244E+02  4.3532E+02  3.1724E+02  2.9270E+02
       4.7670E+02  2.4278E+02  2.3229E+02  2.1465E+02  1.3111E+02  1.5660E+02  1.5635E+02  1.5194E+02  1.5349E+02  9.1673E+01
       1.5097E+02  9.2727E+01  8.2584E+01  6.8078E+01  6.7101E+01  6.7939E+01  6.9561E+01  5.3808E+01  4.3678E+01  3.4636E+01
       3.7807E+01  2.4187E+01  2.7253E+01  2.1013E+01  2.1707E+01  1.3576E+01  1.4169E+01  1.6609E+01  1.5473E+01  1.2485E+01
       1.0483E+01  1.2263E+01  8.5827E+00  7.5579E+00  6.3351E+00  7.4316E+00  7.0120E+00  6.2652E+00  4.6175E+00  3.9603E+00
       5.5989E+00  5.0538E+00  4.0647E+00  3.3750E+00  3.5941E+00  3.3941E+00  2.1729E+00  2.8185E+00  2.5419E+00  1.8295E+00
       2.4956E+00  1.6136E+00  1.6413E+00  1.5238E+00  1.2882E+00  1.5948E+00  1.4401E+00  1.8728E+00  1.5039E+00  1.3654E+00
       1.0767E+00  1.3492E+00  8.2010E-01  9.5411E-01  8.2633E-01  8.4861E-01  5.9086E-01  6.0307E-01  7.0394E-01  6.5030E-01
       6.0460E-01  5.5957E-01  5.9816E-01  5.0553E-01  3.6314E-01  4.0445E-01  4.3600E-01  2.8016E-01  1.9482E-01  2.5432E-01
       1.6744E-01  2.4454E-01  1.6358E-01  1.8254E-01  1.2726E-01  9.5220E-02  9.0727E-02  9.0631E-02  8.5118E-02  9.8624E-02
       5.4673E-02  1.0615E-01  6.5376E-02  5.8043E-02  2.4726E-02  3.8453E-02  2.6888E-02  1.8149E-02  2.6234E-02  2.4664E-02
       2.3994E-02  1.2282E-02  2.0212E-02  1.2262E-02  1.2710E-02  1.1124E-02  7.3613E-03  5.4726E-03  4.8439E-03  0.0000E+00
       3.0189E-03  3.3860E-03  3.3701E-03  2.7047E-03  0.0000E+00  1.1406E-03  2.0489E-04  0.0000E+00  1.8400E-03  0.0000E+00
       0.0000E+00  0.0000E+00  0.0000E+00  0.0000E+00  0.0000E+00  0.0000E+00  0.0000E+00  0.0000E+00  0.0000E+00  0.0000E+00
       0.0000E+00  0.0000E+00  0.0000E+00  0.0000E+00  0.0000E+00  0.0000E+00  0.0000E+00  0.0000E+00  0.0000E+00  0.0000E+00
       0.0000E+00  0.0000E+00  0.0000E+00  0.0000E+00  0.0000E+00  0.0000E+00  0.0000E+00  0.0000E+00  0.0000E+00  0.0000E+00
       0.0000E+00  0.0000E+00  0.0000E+00  0.0000E+00  0.0000E+00  0.0000E+00  0.0000E+00  0.0000E+00  0.0000E+00  0.0000E+00
       0.0000E+00  0.0000E+00  0.0000E+00  0.0000E+00  0.0000E+00  0.0000E+00  0.0000E+00  0.0000E+00  0.0000E+00  0.0000E+00
1

   Track n.  34  "spCHSn34  " , generalized particle n.  218, region n.  1413
      detector volume:  1.0000E+00 cm**3
      logar. energy binning from  1.0000E-03 to  3.0000E+02 GeV,   100 bins (ratio : 1.1344E+00)
      Data follow in a vector A(ie), format (1(5x,1p,10(1x,e11.4)))

       9.8811E-02  1.0301E-01  1.0220E-01  8.8668E-02  9.5177E-02  8.2503E-02  1.1022E-01  1.4261E-01  1.3675E-01  1.4883E-01
       1.2235E-01  1.2715E-01  1.9366E-01  1.7867E-01  2.1079E-01  1.5297E-01  2.3544E-01  1.2194E-01  3.4614E-01  3.2158E-01
       3.3462E-01  4.7122E-01  3.2411E-01  3.1745E-01  2.7079E-01  4.4708E-01  4.5067E-01  3.5969E-01  3.0208E-01  4.1358E-01
       3.9159E-01  2.9184E-01  3.1269E-01  4.3093E-01  2.7849E-01  2.4041E-01  2.0232E-01  1.8522E-01  3.1828E-01  2.3389E-01
       1.9082E-01  2.0723E-01  2.2517E-01  2.5861E-01  1.5865E-01  1.8366E-01  1.4828E-01  1.8271E-01  1.1184E-01  1.2300E-01
       1.0361E-01  8.7062E-02  5.4496E-02  5.1212E-02  7.4786E-02  5.1650E-02  5.9230E-02  7.0319E-02  6.6644E-02  5.1775E-02
       4.7445E-02  3.8194E-02  3.8239E-02  1.7203E-02  9.8738E-03  8.3469E-03  6.6879E-03  4.9722E-03  3.1187E-03  2.1760E-03
       6.8306E-04  9.4203E-04  1.2420E-03  0.0000E+00  1.5638E-04  0.0000E+00  9.5912E-05  0.0000E+00  0.0000E+00  0.0000E+00
       0.0000E+00  0.0000E+00  0.0000E+00  0.0000E+00  0.0000E+00  0.0000E+00  0.0000E+00  0.0000E+00  0.0000E+00  0.0000E+00
       0.0000E+00  0.0000E+00  0.0000E+00  0.0000E+00  0.0000E+00  0.0000E+00  0.0000E+00  0.0000E+00  0.0000E+00  0.0000E+00
1

   Track n.  35  "spPHSn34  " , generalized particle n.    7, region n.  1413
      detector volume:  1.0000E+00 cm**3
      logar. energy binning from  1.0000E-04 to  3.0000E+02 GeV,   100 bins (ratio : 1.1608E+00)
      Data follow in a vector A(ie), format (1(5x,1p,10(1x,e11.4)))

       4.2401E+03  3.7714E+03  3.3470E+03  2.1464E+03  2.5922E+03  2.3902E+03  1.8500E+03  1.2805E+03  9.0384E+02  7.0022E+02
       1.2586E+03  6.0803E+02  5.6106E+02  4.2856E+02  5.9873E+02  3.5216E+02  3.2972E+02  3.2755E+02  2.1876E+02  2.1532E+02
       2.4412E+02  1.4335E+02  1.3325E+02  1.0524E+02  1.0448E+02  7.8707E+01  8.6003E+01  5.8684E+01  5.7572E+01  3.3220E+01
       3.8347E+01  2.7516E+01  1.4730E+01  1.8160E+01  1.2409E+01  1.2169E+01  1.0671E+01  6.7889E+00  4.6198E+00  4.0378E+00
       2.6018E+00  1.7985E+00  1.5322E+00  1.3212E+00  9.0234E-01  7.7689E-01  8.8483E-01  6.2585E-01  3.9190E-01  2.4789E-01
       2.9482E-01  1.8236E-01  1.2204E-01  1.4935E-01  7.9655E-02  8.8195E-02  9.6024E-02  4.3131E-02  5.8608E-02  3.6609E-02
       2.3429E-02  1.4730E-02  1.5444E-02  1.5311E-02  7.3338E-03  4.5039E-03  2.8121E-03  2.4360E-03  1.0657E-03  2.1336E-03
       0.0000E+00  0.0000E+00  0.0000E+00  0.0000E+00  0.0000E+00  0.0000E+00  0.0000E+00  6.4094E-05  0.0000E+00  0.0000E+00
       0.0000E+00  0.0000E+00  0.0000E+00  0.0000E+00  0.0000E+00  0.0000E+00  0.0000E+00  0.0000E+00  0.0000E+00  0.0000E+00
       0.0000E+00  0.0000E+00  0.0000E+00  0.0000E+00  0.0000E+00  0.0000E+00  0.0000E+00  0.0000E+00  0.0000E+00  0.0000E+00
1

   Track n.  36  "spEESn34  " , generalized particle n.  213, region n.  1413
      detector volume:  1.0000E+00 cm**3
      logar. energy binning from  1.0000E-03 to  3.0000E+02 GeV,   100 bins (ratio : 1.1344E+00)
      Data follow in a vector A(ie), format (1(5x,1p,10(1x,e11.4)))

       5.3119E+01  5.2000E+01  4.2135E+01  2.9203E+01  3.1480E+01  3.4875E+01  3.1386E+01  2.5448E+01  1.7875E+01  2.4183E+01
       1.6539E+01  1.9738E+01  1.3233E+01  1.2308E+01  1.3896E+01  1.0452E+01  1.0318E+01  8.6150E+00  8.8536E+00  6.6772E+00
       9.3809E+00  6.7184E+00  5.0196E+00  5.2288E+00  5.0899E+00  3.7556E+00  3.2019E+00  2.4769E+00  2.4064E+00  1.9937E+00
       1.6972E+00  1.2200E+00  1.2483E+00  7.9592E-01  7.8179E-01  6.7691E-01  6.1014E-01  3.4832E-01  3.5803E-01  3.1009E-01
       2.0203E-01  2.3054E-01  1.5464E-01  1.4153E-01  1.3368E-01  9.3743E-02  9.3613E-02  5.7991E-02  4.1686E-02  2.9262E-02
       3.1990E-02  2.3882E-02  1.8583E-02  2.3123E-02  6.7520E-03  7.1475E-03  2.5639E-03  2.7194E-04  7.5324E-03  4.4649E-03
       2.7066E-03  1.9827E-03  2.7067E-03  2.3616E-03  2.2221E-03  6.5569E-04  0.0000E+00  0.0000E+00  0.0000E+00  1.4144E-04
       0.0000E+00  0.0000E+00  0.0000E+00  0.0000E+00  0.0000E+00  0.0000E+00  0.0000E+00  0.0000E+00  0.0000E+00  0.0000E+00
       0.0000E+00  0.0000E+00  0.0000E+00  0.0000E+00  0.0000E+00  0.0000E+00  0.0000E+00  0.0000E+00  0.0000E+00  0.0000E+00
       0.0000E+00  0.0000E+00  0.0000E+00  0.0000E+00  0.0000E+00  0.0000E+00  0.0000E+00  0.0000E+00  0.0000E+00  0.0000E+00
